Introduction to Apache Arrow framework
…
This is intentionally done so that you can manipulate, calculate, and
extract informations from the dataset, taking advantage of the Arrow
in-memory analytics framework. This way, the computations should be
faster, and the idea is that you just use dplyr::collect()
when the final result should be needed as an R object. For example, we
could calculate the mean sea level for Ireland per year, for the whole
dataset, as

da |>
    filter(country == "IRL", use_flag == 1) |>
    group_by(year) |>
    summarise(mean = mean(sea_level)) |>
    arrange(year) |>
    collect()
#> # A tibble: 63 × 2
#>     year  mean
#>    <int> <dbl>
#>  1  1958  3.11
#>  2  1959  3.12
#>  3  1960  3.16
#>  4  1961  3.16
#>  5  1962  3.09
#>  6  1963  3.13
#>  7  1964  3.13
#>  8  1965  3.11
#>  9  1966  3.15
#> 10  1967  3.14
#> # ℹ 53 more rows

Any other queries could be made, as long as the
dplyr verbs uesd are supported by the
arrow package. For example, we could ask for the
minimum, mean, and maximum sea level values for Ireland per year

da |>
    filter(country == "IRL", use_flag == 1) |>
    group_by(year) |>
    summarise(
        min = min(sea_level),
        mean = mean(sea_level),
        max = max(sea_level)) |>
    collect()
#> # A tibble: 63 × 4
#>     year   min     mean   max
#>    <int> <dbl>    <dbl> <dbl>
#>  1  2018 -4.09  0.0462  11.6 
#>  2  2019 -5.80  0.0436   3.18
#>  3  2014 -2.96 -0.0175   3.59
#>  4  2015 -3.93 -0.0613   5.41
#>  5  2016 -3.17 -0.0370   2.99
#>  6  2017 -2.96 -0.0212   3.31
#>  7  2008 -3.41 -0.00481  4.85
#>  8  2009 -3.00  0.0108   2.94
#>  9  2010 -3.71 -0.0192   3.11
#> 10  2011 -3.17 -0.00690  3.07
#> # ℹ 53 more rows
…
