…
Any other manipulation of the dataset must be made using
**dplyr** verbs. For example, to count the number of observations by
country, one could use


```r
da |>
    count(country) |>
    collect()
#> # A tibble: 113 × 2
#>    country         n
#>    <chr>       <int>
#>  1 BEL       1263467
#>  2 JPN      74580447
#>  3 USA     243838504
#>  4 DNK      36726648
#>  5 SLV        812230
#>  6 GBR      76038844
#>  7 YEM         63362
#>  8 CAN      67019312
#>  9 AUS      72441932
#> 10 EGY        220872
#> # ℹ 103 more rows
```
…
