Introduction to Apache Arrow framework • geslaR
…
Note, however, that the output is just a query to the full dataset.
To explicitly return the calculation, you should use
dplyr::collect(), so the result is a standard
tibble

da |>
    count(country) |>
    collect()
#> # A tibble: 113 × 2
#>    country         n
#>    <chr>       <int>
#>  1 BEL       1263467
#>  2 JPN      74580447
#>  3 NOR      28452201
#>  4 DNK      36726648
#>  5 USA     243838504
#>  6 GBR      76038844
#>  7 SLV        812230
#>  8 MEX      10755284
#>  9 CAN      67019312
#> 10 NLD     133699230
#> # ℹ 103 more rows

This is intentionally done so that you can manipulate, calculate, and
extract information from the dataset, taking advantage of the Arrow
in-memory analytics framework. This way, the computations should be
faster, and the idea is that you just use dplyr::collect()
when the final result is needed as an R object. For example, we could
calculate the mean sea level for Ireland per year as

da |>
    filter(country == "IRL", use_flag == 1) |>
    group_by(year) |>
    summarise(mean = mean(sea_level)) |>
    arrange(year) |>
    collect()
#> # A tibble: 63 × 2
#>     year  mean
#>    <int> <dbl>
#>  1  1958  3.11
#>  2  1959  3.12
#>  3  1960  3.16
#>  4  1961  3.16
#>  5  1962  3.09
#>  6  1963  3.13
#>  7  1964  3.13
#>  8  1965  3.11
#>  9  1966  3.15
#> 10  1967  3.14
#> # ℹ 53 more rows

Any other queries could be made, as long as the
dplyr verbs used are supported by the
arrow package. For example, we could ask for the
minimum, mean, and maximum sea level values for Ireland per year

da |>
    filter(country == "IRL", use_flag == 1) |>
    group_by(year) |>
    summarise(
        min = min(sea_level),
        mean = mean(sea_level),
        max = max(sea_level)) |>
    collect()
#> # A tibble: 63 × 4
#>     year   min     mean   max
#>    <int> <dbl>    <dbl> <dbl>
#>  1  2018 -4.09  0.0462  11.6 
#>  2  2019 -5.80  0.0436   3.18
#>  3  2003 -1.13 -0.00629  0.9 
#>  4  2004 -1.11  0.0391   4.07
#>  5  2005 -1.32  1.32     4.83
#>  6  2006 -2.47  0.692    4.94
#>  7  2007 -3.48 -0.0374   4.94
#>  8  2008 -3.41 -0.00481  4.85
#>  9  2009 -3.00  0.0108   2.94
#> 10  2010 -3.71 -0.0192   3.11
#> # ℹ 53 more rows
…
